…
    full_wb %>%
        count(Waterbody_ID) %>%
        filter(n > 1)

    ## # A tibble: 88 x 2
    ##      Waterbody_ID     n
    ##             <chr> <int>
    ##  1 GB109053022030     2
    ##  2 GB109053022300     2
    ##  3 GB109053027460     2
    ##  4 GB109053027680     2
    ##  5 GB109053027690     2
    ##  6 GB109053027780     2
    ##  7 GB109053027800     2
    ##  8 GB109054026510     2
    ##  9 GB109054026610     2
    ## 10 GB109054032470     2
    ## # ... with 78 more rows
…
